{
	"version": 1,
	"changelists": [
		{
			"guid": "00000000000000000000000000000000",
			"description": "Default Uncontrolled Changelist",
			"files": [
				"/Users/yegorchevardin/Documents/university/2cond course/2nd semester/computer-graphics/лабораторные/Лабораторная робота 12/Lab12/Content/StarterContent/Architecture/Wall_Door_400x400.uasset",
				"/Users/yegorchevardin/Documents/university/2cond course/2nd semester/computer-graphics/лабораторные/Лабораторная робота 12/Lab12/Content/Animations/Animation1.uasset",
				"/Users/yegorchevardin/Documents/university/2cond course/2nd semester/computer-graphics/лабораторные/Лабораторная робота 12/Lab12/Content/Characters/Mannequins/Animations/Manny/MM_Idle.uasset"
			]
		}
	]
}